Dplyr
…
Even without the way of annotating that I try to circulate, this code would be unefficient to write. {dplyr} offers us across() to make our lives easier in such cases. With across(), we can apply multiple functions immediately to mulitple columns. If we want to change all those columns to character and check how many characters each has, we could simply do:

# Change numerics to character and show last 7 columns
mutate(sw, across(c(height, mass, birth_year, bmi), list(char = as.character, charn = nchar)))[18:24]

# A tibble: 48 × 7
   height_charn mass_char mass_charn birth_year_char birth_year_charn bmi_char  
          <int> <chr>          <int> <chr>                      <int> <chr>     
 1            4 32                 2 33                             2 34.722222…
 2            3 49                 2 19                             2 21.777777…
 3            4 77                 2 57                             2 23.245984…
 4            4 112                3 200                            3 21.545090…
 5            3 80                 2 29                             2 24.691358…
 6            4 74                 2 44                             2 24.725182…
 7            4 1358               4 600                            3 443.42857…
 8            3 77                 2 21                             2 26.643598…
 9            3 110                3 <NA>                          NA 33.950617…
10            3 75                 2 82                             2 25.951557…
# ℹ 38 more rows
# ℹ 1 more variable: bmi_charn <int>
…
